Modifies genomic regions by centering and then expanding them — center_expand_regions • peakCombiner
…
data_center_expand
#> # A tibble: 52 × 8
#>    chrom  start   end name            score strand center sample_name 
#>    <chr>  <dbl> <dbl> <chr>           <dbl> <chr>   <dbl> <chr>       
#>  1 Chr2    100.  800. control_rep1|9      0 .        450. control_rep1
#>  2 chr1    300. 1000. control_rep1|1      0 .        650. control_rep1
#>  3 chr1   3600. 4300. control_rep1|2      0 .       3950. control_rep1
#>  4 chr1   4650. 5350. control_rep1|3      0 .       5000. control_rep1
#>  5 chr1   5500. 6200. control_rep1|5      0 .       5850. control_rep1
#>  6 chr1   6700. 7400. control_rep1|6      0 .       7050. control_rep1
#>  7 chr10   300. 1000. control_rep1|7      0 .        650. control_rep1
#>  8 chr2    300. 1000. control_rep1|8      0 .        650. control_rep1
#>  9 chr4 2  300. 1000. control_rep1|10     0 .        650. control_rep1
#> 10 chr4-2  400. 1100. control_rep1|11     0 .        750. control_rep1
#> # ℹ 42 more rows

# You can choose to use the midpoint and predefined values to expand

data_center_expand <- center_expand_regions(
  data = data_prepared,
  center_by = "midpoint",
  expand_by = c(100, 600),
  show_messages = FALSE
)

data_center_expand
#> # A tibble: 52 × 8
#>    chrom  start   end name            score strand center sample_name 
#>    <chr>  <dbl> <dbl> <chr>           <dbl> <chr>   <dbl> <chr>       
#>  1 Chr2     350  1050 control_rep1|9      0 .         450 control_rep1
#>  2 chr1     550  1250 control_rep1|1      0 .         650 control_rep1
#>  3 chr1    3850  4550 control_rep1|2      0 .        3950 control_rep1
#>  4 chr1    4900  5600 control_rep1|3      0 .        5000 control_rep1
#>  5 chr1    5750  6450 control_rep1|5      0 .        5850 control_rep1
#>  6 chr1    6950  7650 control_rep1|6      0 .        7050 control_rep1
#>  7 chr10    550  1250 control_rep1|7      0 .         650 control_rep1
#>  8 chr2     550  1250 control_rep1|8      0 .         650 control_rep1
#>  9 chr4 2   550  1250 control_rep1|10     0 .         650 control_rep1
#> 10 chr4-2   650  1350 control_rep1|11     0 .         750 control_rep1
#> # ℹ 42 more rows
…
