Apply user-defined filtering options to genomic regions. — filter_regions • peakCombiner
…
    Examples

# Load in and prepare a an accepted tibble
input_data <- peakCombiner::syn_data_bed
input_data
#> # A tibble: 55 × 4
#>    chrom start   end sample_name   
#>    <chr> <dbl> <dbl> <chr>         
#>  1 chr1    200   900 treatment_rep1
#>  2 chr1      1   900 treatment_rep3
#>  3 chr1    101   300 control_rep2  
#>  4 chr1    301   900 control_rep2  
#>  5 chr1    201   900 treatment_rep1
#>  6 chr1    301   900 treatment_rep2
#>  7 chr1    301  1000 control_rep1  
#>  8 chr1    301  1100 control_rep3  
#>  9 chr1   1301  1600 treatment_rep3
#> 10 chr1   1901  2200 treatment_rep2
#> # ℹ 45 more rows
…
