Prepare input data for peakCombiner package — prepare_input_regions • peakCombiner
…
#> → Column 'name' is a computed column from peakCombiner and therefore
#>   pre-exisiting data in a column 'name' will not be retained.
#> ! Column 'center' does exist in `data_prepared`.
#> → The column 'center' is taken to define output column 'center'.
#> → Checking <class> and "values" of all columns.
#> ✔ Structure of data was successfully checked to be an accepted input.
#>   
#> → Checking whether duplicated regions exist and need to be collapsed.
#> → Checked whether duplicated regions exist and need to be collapsed.
#> ✔ Duplicated regions identified and collapsed to unique chrom, start, and end
#>   for each sample by strongest score value.
#>   
#> ✔ Preparation of data finished successfully.
data_prepared
#> # A tibble: 52 × 8
#>    chrom  start   end name            score strand center sample_name 
#>    <chr>  <dbl> <dbl> <chr>           <dbl> <chr>   <dbl> <chr>       
#>  1 Chr2     101   800 control_rep1|9     80 .         700 control_rep1
#>  2 chr1     301  1000 control_rep1|1     96 .         600 control_rep1
#>  3 chr1    3501  4400 control_rep1|2     95 .        3800 control_rep1
#>  4 chr1    4701  5300 control_rep1|3     46 .        4900 control_rep1
#>  5 chr1    5601  6100 control_rep1|5     26 .        5700 control_rep1
#>  6 chr1    6701  7400 control_rep1|6     25 .        7000 control_rep1
#>  7 chr10    301  1000 control_rep1|7     75 .         600 control_rep1
#>  8 chr2     301  1000 control_rep1|8     50 .         600 control_rep1
#>  9 chr4 2   301  1000 control_rep1|10    30 .         600 control_rep1
#> 10 chr4-2   401  1100 control_rep1|11    20 .         600 control_rep1
#> # ℹ 42 more rows
…
