peakCombiner: The R package to curate and merge enriched genomic regions into consensus peak sets • peakCombiner
…
library("ggplot2")

An overview of a complete run

Here you find an overview of a complete run of the peakCombiner
recommended workflow.

devtools::load_all()
#> ℹ Loading peakCombiner
#library("peakCombiner")

utils::data("syn_data_tibble")
syn_data_tibble
#> # A tibble: 55 × 8
#>    chrom start   end name  score strand center sample_name   
#>    <chr> <dbl> <dbl> <lgl> <dbl> <chr>   <dbl> <chr>         
#>  1 chr1    200   900 NA      100 .         500 treatment_rep1
#>  2 chr1      1   900 NA       97 .         500 treatment_rep3
#>  3 chr1    101   300 NA       94 .         200 control_rep2  
#>  4 chr1    301   900 NA       94 .         500 control_rep2  
#>  5 chr1    201   900 NA      100 .         500 treatment_rep1
#>  6 chr1    301   900 NA       98 .         600 treatment_rep2
#>  7 chr1    301  1000 NA       96 .         600 control_rep1  
#>  8 chr1    301  1100 NA       93 .         500 control_rep3  
#>  9 chr1   1301  1600 NA       97 .        1400 treatment_rep3
#> 10 chr1   1901  2200 NA       98 .        2000 treatment_rep2
#> # ℹ 45 more rows
…
Combine multiple tibbles

Finally, combine the multiple input tibbles into one.

combined_input <- control |>
  rbind(treatment)
combined_input
#> # A tibble: 21 × 11
#>    chrom  start   end name  score strand signalValue pValue qValue  peak
#>    <chr>  <dbl> <dbl> <chr> <dbl> <chr>        <dbl>  <dbl>  <dbl> <dbl>
#>  1 chr1     301  1000 .         0 .               96     -1   3.96   299
#>  2 chr1    3501  4400 .         0 .               95     -1   3.96   299
#>  3 chr1    4701  5300 .         0 .               46     -1   3.33   199
#>  4 chr1    4701  5300 .         0 .               45     -1   3.31   399
#>  5 chr1    5601  6100 .         0 .               26     -1   2.83    99
#>  6 chr1    6701  7400 .         0 .               25     -1   2.80   299
#>  7 chr10    301  1000 .         0 .               75     -1   3.75   299
#>  8 chr2     301  1000 .         0 .               50     -1   3.40   299
#>  9 Chr2     101   800 .         0 .               80     -1   3.81   599
#> 10 chr4 2   301  1000 .         0 .               30     -1   2.95   299
#> # ℹ 11 more rows
#> # ℹ 1 more variable: sample_name <chr>
…
prepare_input_regions(
  data = GenomicRanges_data,
  show_messages = FALSE
)
#> → Column 'chrom' is not class <character>. It will be
#> converted to class <character>.
#> ✔ Structure of data was successfully checked to be an accepted input.
#>   
#> → Checking whether duplicated regions exist and need to be collapsed.
#> → Checked whether duplicated regions exist and need to be collapsed.
#> ✔ Duplicated regions identified and collapsed to unique chrom, start, and end
#>   for each sample by strongest score value.
#>   
#> ✔ Preparation of data finished successfully.
#> # A tibble: 52 × 8
#>    chrom  start   end name            score strand center sample_name 
#>    <chr>  <dbl> <dbl> <chr>           <dbl> <chr>   <dbl> <chr>       
#>  1 Chr2     101   800 control_rep1|9     80 .         700 control_rep1
#>  2 chr1     301  1000 control_rep1|1     96 .         600 control_rep1
#>  3 chr1    3501  4400 control_rep1|2     95 .        3800 control_rep1
#>  4 chr1    4701  5300 control_rep1|3     46 .        4900 control_rep1
#>  5 chr1    5601  6100 control_rep1|5     26 .        5700 control_rep1
#>  6 chr1    6701  7400 control_rep1|6     25 .        7000 control_rep1
#>  7 chr10    301  1000 control_rep1|7     75 .         600 control_rep1
#>  8 chr2     301  1000 control_rep1|8     50 .         600 control_rep1
#>  9 chr4 2   301  1000 control_rep1|10    30 .         600 control_rep1
#> 10 chr4-2   401  1100 control_rep1|11    20 .         600 control_rep1
#> # ℹ 42 more rows
…
Load from BED file

Unlike ‘narrowPeak’ files, BED files typically do not include columns
for summits (‘summit’) or significance (‘score’) for your peaks. For
that reason, we recommend using ‘narrowPeak’ files if possible.
Sometimes you may only have ‘chrom’, ‘start’, and ‘end’ and you may
still use peakCombiner.
Here we show you how to load it.

Lets load a BED file.

utils::data("syn_data_bed")
syn_data_bed |> dplyr::arrange(sample_name)
#> # A tibble: 55 × 4
#>    chrom  start   end sample_name 
#>    <chr>  <dbl> <dbl> <chr>       
#>  1 chr1     301  1000 control_rep1
#>  2 chr1    3501  4400 control_rep1
#>  3 chr1    4701  5300 control_rep1
#>  4 chr1    4701  5300 control_rep1
#>  5 chr1    5601  6100 control_rep1
#>  6 chr1    6701  7400 control_rep1
#>  7 chr10    301  1000 control_rep1
#>  8 chr2     301  1000 control_rep1
#>  9 Chr2     101   800 control_rep1
#> 10 chr4 2   301  1000 control_rep1
#> # ℹ 45 more rows
…
#> ! Column 'strand' does not exist in `data_prepared`.
#> → Column 'strand' is added and filled with ".".
#> ! Column 'summit' does not exist in `data_prepared`.
#> → As no input column 'summit' is found, the output column 'center' has to be
#>   filled with arithmetic center of peak.
#> → Checking <class> and "values" of all columns.
#> ✔ Structure of data was successfully checked to be an accepted input.
#>   
#> → Checking whether duplicated regions exist and need to be collapsed.
#> → Checked whether duplicated regions exist and need to be collapsed.
#> ✔ Duplicated regions identified and collapsed to unique chrom, start, and end
#>   for each sample by strongest score value.
#>   
#> ✔ Preparation of data finished successfully.
#> # A tibble: 52 × 8
#>    chrom  start   end name            score strand center sample_name 
#>    <chr>  <dbl> <dbl> <chr>           <dbl> <chr>   <dbl> <chr>       
#>  1 Chr2     101   800 control_rep1|9      0 .        450. control_rep1
#>  2 chr1     301  1000 control_rep1|1      0 .        650. control_rep1
#>  3 chr1    3501  4400 control_rep1|2      0 .       3950. control_rep1
#>  4 chr1    4701  5300 control_rep1|3      0 .       5000. control_rep1
#>  5 chr1    5601  6100 control_rep1|5      0 .       5850. control_rep1
#>  6 chr1    6701  7400 control_rep1|6      0 .       7050. control_rep1
#>  7 chr10    301  1000 control_rep1|7      0 .        650. control_rep1
#>  8 chr2     301  1000 control_rep1|8      0 .        650. control_rep1
#>  9 chr4 2   301  1000 control_rep1|10     0 .        650. control_rep1
#> 10 chr4-2   401  1100 control_rep1|11     0 .        750. control_rep1
#> # ℹ 42 more rows
…
Quick start

The quickest way to get started is to call
center_expand_regions using just the default parameters. In
this case, center_expand_regions updates the ‘start’ and
‘end’ coordinates of each genomic region such that it is centered around
‘center’ and resized to the median of all input regions.

center_expand_regions(
  data = data_prepared,
  show_message = FALSE
)
#> # A tibble: 52 × 8
#>    chrom  start   end name            score strand center sample_name 
#>    <chr>  <dbl> <dbl> <chr>           <dbl> <chr>   <dbl> <chr>       
#>  1 Chr2     350  1050 control_rep1|9     80 .         700 control_rep1
#>  2 chr1     250   950 control_rep1|1     96 .         600 control_rep1
#>  3 chr1    3450  4150 control_rep1|2     95 .        3800 control_rep1
#>  4 chr1    4550  5250 control_rep1|3     46 .        4900 control_rep1
#>  5 chr1    5350  6050 control_rep1|5     26 .        5700 control_rep1
#>  6 chr1    6650  7350 control_rep1|6     25 .        7000 control_rep1
#>  7 chr10    250   950 control_rep1|7     75 .         600 control_rep1
#>  8 chr2     250   950 control_rep1|8     50 .         600 control_rep1
#>  9 chr4 2   250   950 control_rep1|10    30 .         600 control_rep1
#> 10 chr4-2   250   950 control_rep1|11    20 .         600 control_rep1
#> # ℹ 42 more rows
…
#>   
#> → Checking <class> and "values" of all columns.
#> ✔ Structure of data was successfully checked to be an accepted input.
#>   
#> → Genomic regions will be centered and expanded.
#>   
#> → Starting with expanding genomic regions from the column center.
#> ✔ Genomic regions were successfully centered and expanded.
#>   
#> ℹ Some newly-defined genomic regions have a start coordinate below "1".
#> → Values of name for these site: "control_rep2|1".
#> ✔ These genomic regions were truncated to get start coordinate "1".
#> ✔ Genomic regions were successfully centered and expanded.
#> 
#> # A tibble: 52 × 8
#>    chrom  start   end name            score strand center sample_name 
#>    <chr>  <dbl> <dbl> <chr>           <dbl> <chr>   <dbl> <chr>       
#>  1 Chr2     350  1050 control_rep1|9     80 .         700 control_rep1
#>  2 chr1     250   950 control_rep1|1     96 .         600 control_rep1
#>  3 chr1    3450  4150 control_rep1|2     95 .        3800 control_rep1
#>  4 chr1    4550  5250 control_rep1|3     46 .        4900 control_rep1
#>  5 chr1    5350  6050 control_rep1|5     26 .        5700 control_rep1
#>  6 chr1    6650  7350 control_rep1|6     25 .        7000 control_rep1
#>  7 chr10    250   950 control_rep1|7     75 .         600 control_rep1
#>  8 chr2     250   950 control_rep1|8     50 .         600 control_rep1
#>  9 chr4 2   250   950 control_rep1|10    30 .         600 control_rep1
#> 10 chr4-2   250   950 control_rep1|11    20 .         600 control_rep1
#> # ℹ 42 more rows
You can appreciate that values for ‘start’ and ‘end’ are changed,
while the number of input regions stays the same.

Define the expansion value.

Finally some examples how you can define the expansion, either
symmetrically or asymmetrically (for more details see section Expand from ‘center’).

center_expand_regions(
  data = data_prepared,
  center_by = "center_column",
  expand_by = c(500),
  show_messages = FALSE
)
#> # A tibble: 52 × 8
#>    chrom  start   end name            score strand center sample_name 
#>    <chr>  <dbl> <dbl> <chr>           <dbl> <chr>   <dbl> <chr>       
#>  1 Chr2     200  1200 control_rep1|9     80 .         700 control_rep1
#>  2 chr1     100  1100 control_rep1|1     96 .         600 control_rep1
#>  3 chr1    3300  4300 control_rep1|2     95 .        3800 control_rep1
#>  4 chr1    4400  5400 control_rep1|3     46 .        4900 control_rep1
#>  5 chr1    5200  6200 control_rep1|5     26 .        5700 control_rep1
#>  6 chr1    6500  7500 control_rep1|6     25 .        7000 control_rep1
#>  7 chr10    100  1100 control_rep1|7     75 .         600 control_rep1
#>  8 chr2     100  1100 control_rep1|8     50 .         600 control_rep1
#>  9 chr4 2   100  1100 control_rep1|10    30 .         600 control_rep1
#> 10 chr4-2   100  1100 control_rep1|11    20 .         600 control_rep1
#> # ℹ 42 more rows

center_expand_regions(
  data = data_prepared,
  center_by = "center_column",
  expand_by = c(100, 1000),
  show_messages = FALSE
)
#> # A tibble: 52 × 8
#>    chrom  start   end name            score strand center sample_name 
#>    <chr>  <dbl> <dbl> <chr>           <dbl> <chr>   <dbl> <chr>       
#>  1 Chr2     600  1700 control_rep1|9     80 .         700 control_rep1
#>  2 chr1     500  1600 control_rep1|1     96 .         600 control_rep1
#>  3 chr1    3700  4800 control_rep1|2     95 .        3800 control_rep1
#>  4 chr1    4800  5900 control_rep1|3     46 .        4900 control_rep1
#>  5 chr1    5600  6700 control_rep1|5     26 .        5700 control_rep1
#>  6 chr1    6900  8000 control_rep1|6     25 .        7000 control_rep1
#>  7 chr10    500  1600 control_rep1|7     75 .         600 control_rep1
#>  8 chr2     500  1600 control_rep1|8     50 .         600 control_rep1
#>  9 chr4 2   500  1600 control_rep1|10    30 .         600 control_rep1
#> 10 chr4-2   500  1600 control_rep1|11    20 .         600 control_rep1
#> # ℹ 42 more rows
…
Quick start

As a quick first example, you can easily exclude blacklisted hg38
regions as follows.

data_filtered <- filter_regions(
  data = data_center_expand,
  exclude_by_blacklist = "hg38",
  show_messages = FALSE
)

data_filtered
#> # A tibble: 52 × 8
#>    chrom  start   end name            score strand center sample_name 
#>    <chr>  <int> <int> <chr>           <dbl> <chr>   <dbl> <chr>       
#>  1 Chr2     350  1050 control_rep1|9     80 .         700 control_rep1
#>  2 chr1     250   950 control_rep1|1     96 .         600 control_rep1
#>  3 chr1    3450  4150 control_rep1|2     95 .        3800 control_rep1
#>  4 chr1    4550  5250 control_rep1|3     46 .        4900 control_rep1
#>  5 chr1    5350  6050 control_rep1|5     26 .        5700 control_rep1
#>  6 chr1    6650  7350 control_rep1|6     25 .        7000 control_rep1
#>  7 chr10    250   950 control_rep1|7     75 .         600 control_rep1
#>  8 chr2     250   950 control_rep1|8     50 .         600 control_rep1
#>  9 chr4 2   250   950 control_rep1|10    30 .         600 control_rep1
#> 10 chr4-2   250   950 control_rep1|11    20 .         600 control_rep1
#> # ℹ 42 more rows
…
#> ✔ Input data was filtered to retain regions with a score above the defined
#>   threshold.
#>   
#> ℹ The argument `include_top_n_scoring` extracted the the top 6 regions by score
#>   per sample (based on the values in sample_name).
#> → The top enriched 6 regions per sample will be retained.
#> ℹ The argument `include_top_n_scoring` was defined as 6.
#> → The following "sample_names" contain less regions then defined by
#>   `include_top_n_scoring`: control_rep3
#> ! No genomic regions will be removed for such samples.
#> ✔ Input data was filtered and the top 6 enriched regions per sample are
#>   retained.
#>   
#> ✔ Filtered dataset will be returned.
#> # A tibble: 35 × 8
#>    chrom start   end name           score strand center sample_name 
#>    <chr> <int> <int> <chr>          <dbl> <chr>   <dbl> <chr>       
#>  1 chr1   6650  7350 control_rep1|6    25 .        7000 control_rep1
#>  2 chr1   5350  6050 control_rep1|5    26 .        5700 control_rep1
#>  3 chr1   4550  5250 control_rep1|3    46 .        4900 control_rep1
#>  4 chr2    250   950 control_rep1|8    50 .         600 control_rep1
#>  5 chr1   3450  4150 control_rep1|2    95 .        3800 control_rep1
#>  6 chr1    250   950 control_rep1|1    96 .         600 control_rep1
#>  7 chr2     50   750 control_rep2|7    30 .         400 control_rep2
#>  8 chr1   3450  4150 control_rep2|3    44 .        3800 control_rep2
#>  9 chr1   6650  7350 control_rep2|5    44 .        7000 control_rep2
#> 10 chr1      1   550 control_rep2|1    94 .         200 control_rep2
#> # ℹ 25 more rows
…
Finally, we can use this vector of good names in filter_regions for
the parameter include_by_chromosome_name

data_filtered_chr <- filter_regions(
  data = data_center_expand,
  include_by_chromosome_name = include_chrom,
  exclude_by_blacklist = NULL,
  include_above_score_cutoff = NULL,
  include_top_n_scoring = NULL,
  show_messages = FALSE
)
data_filtered_chr
#> # A tibble: 43 × 8
#>    chrom start   end name           score strand center sample_name 
#>    <chr> <dbl> <dbl> <chr>          <dbl> <chr>   <dbl> <chr>       
#>  1 chr1    250   950 control_rep1|1    96 .         600 control_rep1
#>  2 chr1   3450  4150 control_rep1|2    95 .        3800 control_rep1
#>  3 chr1   4550  5250 control_rep1|3    46 .        4900 control_rep1
#>  4 chr1   5350  6050 control_rep1|5    26 .        5700 control_rep1
#>  5 chr1   6650  7350 control_rep1|6    25 .        7000 control_rep1
#>  6 chr10   250   950 control_rep1|7    75 .         600 control_rep1
#>  7 chr2    250   950 control_rep1|8    50 .         600 control_rep1
#>  8 chr1      1   550 control_rep2|1    94 .         200 control_rep2
#>  9 chr1    150   850 control_rep2|2    94 .         500 control_rep2
#> 10 chr1   3450  4150 control_rep2|3    44 .        3800 control_rep2
#> # ℹ 33 more rows
…
